<?xml version="1.0" encoding="UTF-8"?>
            <svg xmlns="http://www.w3.org/2000/svg" xmlns:xlink="http://www.w3.org/1999/xlink" id="Layer_1" data-name="Layer 1" width="50" viewBox="0 0 25 27.14">
            <defs>
                <style>.cls-1{fill:#FEDA00;}.cls-2{opacity:0.09;mix-blend-mode:multiply;}.cls-3{fill:#ddd;}.cls-4{fill:#fff;}.cls-5{isolation:isolate;font-size:20px;font-family:RobotoCondensed-Bold, Roboto Condensed;font-weight:700;}</style>
                <symbol id="New_Symbol" data-name="New Symbol" viewBox="0 0 48.05 51.27">
                    <path class="cls-1" d="M47,23c0,11.94-11.49,20.87-21.17,27.72a3,3,0,0,1-3.58-.07C13.3,43.82,1,34.91,1,23a23,23,0,0,1,46,0Z" />
                    <g class="cls-2">
                        <path d="M24,2A21,21,0,0,1,45,23c0,10.81-10.49,19.13-20.33,26.08a1,1,0,0,1-1.21,0l-1-.75C13.8,41.7,3,33.48,3,23A21,21,0,0,1,24,2m0-2A23,23,0,0,0,1,23C1,34.91,13.3,43.82,22.25,50.65a3,3,0,0,0,1.83.62,3,3,0,0,0,1.75-.55C35.51,43.87,47,34.94,47,23A23,23,0,0,0,24,0Z" />
                    </g>
                    <rect class="cls-3" y="13.37" width="48" height="21.88" rx="3.46" />
                    <rect class="cls-4" y="11.16" width="48" height="21.88" rx="3.46" />
                    <text class="cls-5" transform="translate(6.14 29.09)">KPN</text>
                </symbol>
            </defs>
            <use width="48.05" height="51.27" transform="scale(0.52 0.53)" xlink:href="#New_Symbol" />
            </svg>