<svg id="emoji" xmlns="http://www.w3.org/2000/svg" viewBox="0 0 72 72">
  <g id="line">
    <path fill="#ffffff" stroke="#ffffff" stroke-width="2" stroke-linecap="round" stroke-linejoin="round" stroke-miterlimit="10" d="M20.7713,30.421l-3.7092,4.0991c0.6829-7.7072,5.6421-14.3554,12.9628-17.0134c2.1314-0.774,4.3519-1.1663,6.5997-1.1663 c5.4828,0,10.7603,2.375,14.4775,6.5161l0.61,0.6795l3.8565-3.6084l-0.61-0.6795C50.2532,14.0063,43.5725,11,36.6282,11 c-2.8472,0-5.6591,0.4963-8.3556,1.4755C19.0651,15.819,12.7121,24.3037,11.8404,34.059L8.549,30.421L5.205,33.5375l9.4546,10.4502 l9.4537-10.4493L20.7713,30.421z"/>
    <path fill="#ffffff" stroke="#ffffff" stroke-width="2" stroke-linecap="round" stroke-linejoin="round" stroke-miterlimit="10" d="M67,38.3473l-9.4546-10.4502l-9.4537,10.4493l3.3421,3.1174l3.6932-4.0815c-0.6491,7.749-5.6209,14.4422-12.9728,17.1119 c-2.1306,0.7731-4.3501,1.1654-6.5997,1.1654c-5.4828,0-10.7603-2.375-14.4775-6.5157l-0.61-0.6795l-3.8565,3.6079l0.61,0.6795 C21.925,57.9933,28.6066,61,35.5509,61c2.8481,0,5.6591-0.4968,8.3556-1.475c9.2481-3.3574,15.6194-11.9025,16.4463-21.7122 l3.3032,3.6511L67,38.3473z"/>
  </g>
</svg>
